^C:\OPENGL\GRAPHICS-LABS\IRG_LAB3_ASSIGN5\ASSIGNMENT5.CPP|C:\OPENGL\GRAPHICS-LABS\IRG_LAB3_ASSIGN5\MODEL.CPP|C:\OPENGL\GRAPHICS-LABS\IRG_LAB3_ASSIGN5\MYGL.CPP
C:\OPENGL\GRAPHICS-LABS\IRG_LAB3_ASSIGN5\X64\DEBUG\VC142.PDB
C:\OPENGL\GRAPHICS-LABS\IRG_LAB3_ASSIGN5\X64\DEBUG\VC142.IDB
C:\OPENGL\GRAPHICS-LABS\IRG_LAB3_ASSIGN5\X64\DEBUG\MYGL.OBJ
C:\OPENGL\GRAPHICS-LABS\IRG_LAB3_ASSIGN5\X64\DEBUG\MODEL.OBJ
C:\OPENGL\GRAPHICS-LABS\IRG_LAB3_ASSIGN5\X64\DEBUG\ASSIGNMENT5.OBJ
^C:\OPENGL\GRAPHICS-LABS\IRG_LAB3_ASSIGN5\MODEL.CPP
C:\OPENGL\GRAPHICS-LABS\IRG_LAB3_ASSIGN5\X64\DEBUG\VC142.PDB
^C:\OPENGL\GRAPHICS-LABS\IRG_LAB3_ASSIGN5\ASSIGNMENT5.CPP|C:\OPENGL\GRAPHICS-LABS\IRG_LAB3_ASSIGN5\MYGL.CPP
C:\OPENGL\GRAPHICS-LABS\IRG_LAB3_ASSIGN5\X64\DEBUG\VC142.PDB
C:\OPENGL\GRAPHICS-LABS\IRG_LAB3_ASSIGN5\X64\DEBUG\VC142.IDB
C:\OPENGL\GRAPHICS-LABS\IRG_LAB3_ASSIGN5\X64\DEBUG\MYGL.OBJ
C:\OPENGL\GRAPHICS-LABS\IRG_LAB3_ASSIGN5\X64\DEBUG\ASSIGNMENT5.OBJ
^C:\OPENGL\GRAPHICS-LABS\IRG_LAB3_ASSIGN5\MYGL.CPP
C:\OPENGL\GRAPHICS-LABS\IRG_LAB3_ASSIGN5\X64\DEBUG\VC142.PDB
^C:\OPENGL\GRAPHICS-LABS\IRG_LAB3_ASSIGN5\ASSIGNMENT5.CPP
C:\OPENGL\GRAPHICS-LABS\IRG_LAB3_ASSIGN5\X64\DEBUG\VC142.PDB
C:\OPENGL\GRAPHICS-LABS\IRG_LAB3_ASSIGN5\X64\DEBUG\VC142.IDB
C:\OPENGL\GRAPHICS-LABS\IRG_LAB3_ASSIGN5\X64\DEBUG\ASSIGNMENT5.OBJ
