^C:\OPENGL\GRAPHICS-LABS\LEARNINGOPENGL\ANIMATION_TUT.CPP
/c /ZI /JMC /nologo /W3 /WX- /diagnostics:column /sdl /Od /D _DEBUG /D _CONSOLE /D _UNICODE /D UNICODE /Gm- /EHsc /RTC1 /MDd /GS /fp:precise /permissive- /Zc:wchar_t /Zc:forScope /Zc:inline /Fo"X64\DEBUG\\" /Fd"X64\DEBUG\VC142.PDB" /Gd /TP /FC C:\OPENGL\GRAPHICS-LABS\LEARNINGOPENGL\ANIMATION_TUT.CPP
^C:\OPENGL\GRAPHICS-LABS\LEARNINGOPENGL\BRESENHAMLEARNOPENGL.CPP
/c /ZI /JMC /nologo /W3 /WX- /diagnostics:column /sdl /Od /D _DEBUG /D _CONSOLE /D _UNICODE /D UNICODE /Gm- /EHsc /RTC1 /MDd /GS /fp:precise /permissive- /Zc:wchar_t /Zc:forScope /Zc:inline /Fo"X64\DEBUG\\" /Fd"X64\DEBUG\VC142.PDB" /Gd /TP /FC C:\OPENGL\GRAPHICS-LABS\LEARNINGOPENGL\BRESENHAMLEARNOPENGL.CPP
^C:\OPENGL\GRAPHICS-LABS\LEARNINGOPENGL\CUBE.CPP
/c /ZI /JMC /nologo /W3 /WX- /diagnostics:column /sdl /Od /D _DEBUG /D _CONSOLE /D _UNICODE /D UNICODE /Gm- /EHsc /RTC1 /MDd /GS /fp:precise /permissive- /Zc:wchar_t /Zc:forScope /Zc:inline /Fo"X64\DEBUG\\" /Fd"X64\DEBUG\VC142.PDB" /Gd /TP /FC C:\OPENGL\GRAPHICS-LABS\LEARNINGOPENGL\CUBE.CPP
^C:\OPENGL\GRAPHICS-LABS\LEARNINGOPENGL\FIRST.CPP
/c /ZI /JMC /nologo /W3 /WX- /diagnostics:column /sdl /Od /D _DEBUG /D _CONSOLE /D _UNICODE /D UNICODE /Gm- /EHsc /RTC1 /MDd /GS /fp:precise /permissive- /Zc:wchar_t /Zc:forScope /Zc:inline /Fo"X64\DEBUG\\" /Fd"X64\DEBUG\VC142.PDB" /Gd /TP /FC C:\OPENGL\GRAPHICS-LABS\LEARNINGOPENGL\FIRST.CPP
