^C:\OPENGL\GRAPHICS-LABS\THREEVARIABLEEQUATION\THREEVARIABLEEQUATION.CPP
C:\WINDOWS\GLOBALIZATION\SORTING\SORTDEFAULT.NLS
C:\PROGRAM FILES (X86)\MICROSOFT VISUAL STUDIO\2019\COMMUNITY\VC\TOOLS\MSVC\14.25.28610\BIN\HOSTX86\X64\1033\CLUI.DLL
C:\WINDOWS\SYSTEM32\TZRES.DLL
C:\PROGRAM FILES (X86)\MICROSOFT VISUAL STUDIO\2019\COMMUNITY\VC\TOOLS\MSVC\14.25.28610\INCLUDE\IOSTREAM
C:\PROGRAM FILES (X86)\MICROSOFT VISUAL STUDIO\2019\COMMUNITY\VC\TOOLS\MSVC\14.25.28610\INCLUDE\YVALS_CORE.H
C:\PROGRAM FILES (X86)\MICROSOFT VISUAL STUDIO\2019\COMMUNITY\VC\TOOLS\MSVC\14.25.28610\INCLUDE\VCRUNTIME.H
C:\PROGRAM FILES (X86)\MICROSOFT VISUAL STUDIO\2019\COMMUNITY\VC\TOOLS\MSVC\14.25.28610\INCLUDE\SAL.H
C:\PROGRAM FILES (X86)\MICROSOFT VISUAL STUDIO\2019\COMMUNITY\VC\TOOLS\MSVC\14.25.28610\INCLUDE\CONCURRENCYSAL.H
C:\PROGRAM FILES (X86)\MICROSOFT VISUAL STUDIO\2019\COMMUNITY\VC\TOOLS\MSVC\14.25.28610\INCLUDE\VADEFS.H
C:\PROGRAM FILES (X86)\MICROSOFT VISUAL STUDIO\2019\COMMUNITY\VC\TOOLS\MSVC\14.25.28610\INCLUDE\XKEYCHECK.H
C:\PROGRAM FILES (X86)\MICROSOFT VISUAL STUDIO\2019\COMMUNITY\VC\TOOLS\MSVC\14.25.28610\INCLUDE\ISTREAM
C:\PROGRAM FILES (X86)\MICROSOFT VISUAL STUDIO\2019\COMMUNITY\VC\TOOLS\MSVC\14.25.28610\INCLUDE\OSTREAM
C:\PROGRAM FILES (X86)\MICROSOFT VISUAL STUDIO\2019\COMMUNITY\VC\TOOLS\MSVC\14.25.28610\INCLUDE\IOS
C:\PROGRAM FILES (X86)\MICROSOFT VISUAL STUDIO\2019\COMMUNITY\VC\TOOLS\MSVC\14.25.28610\INCLUDE\XLOCNUM
C:\PROGRAM FILES (X86)\MICROSOFT VISUAL STUDIO\2019\COMMUNITY\VC\TOOLS\MSVC\14.25.28610\INCLUDE\CLIMITS
C:\PROGRAM FILES (X86)\MICROSOFT VISUAL STUDIO\2019\COMMUNITY\VC\TOOLS\MSVC\14.25.28610\INCLUDE\LIMITS.H
C:\PROGRAM FILES (X86)\MICROSOFT VISUAL STUDIO\2019\COMMUNITY\VC\TOOLS\MSVC\14.25.28610\INCLUDE\CMATH
C:\PROGRAM FILES (X86)\MICROSOFT VISUAL STUDIO\2019\COMMUNITY\VC\TOOLS\MSVC\14.25.28610\INCLUDE\YVALS.H
C:\PROGRAM FILES (X86)\WINDOWS KITS\10\INCLUDE\10.0.18362.0\UCRT\CRTDBG.H
C:\PROGRAM FILES (X86)\WINDOWS KITS\10\INCLUDE\10.0.18362.0\UCRT\CORECRT.H
C:\PROGRAM FILES (X86)\MICROSOFT VISUAL STUDIO\2019\COMMUNITY\VC\TOOLS\MSVC\14.25.28610\INCLUDE\VCRUNTIME_NEW_DEBUG.H
C:\PROGRAM FILES (X86)\MICROSOFT VISUAL STUDIO\2019\COMMUNITY\VC\TOOLS\MSVC\14.25.28610\INCLUDE\VCRUNTIME_NEW.H
C:\PROGRAM FILES (X86)\MICROSOFT VISUAL STUDIO\2019\COMMUNITY\VC\TOOLS\MSVC\14.25.28610\INCLUDE\CRTDEFS.H
C:\PROGRAM FILES (X86)\MICROSOFT VISUAL STUDIO\2019\COMMUNITY\VC\TOOLS\MSVC\14.25.28610\INCLUDE\USE_ANSI.H
C:\PROGRAM FILES (X86)\MICROSOFT VISUAL STUDIO\2019\COMMUNITY\VC\TOOLS\MSVC\14.25.28610\INCLUDE\CSTDLIB
C:\PROGRAM FILES (X86)\WINDOWS KITS\10\INCLUDE\10.0.18362.0\UCRT\MATH.H
C:\PROGRAM FILES (X86)\WINDOWS KITS\10\INCLUDE\10.0.18362.0\UCRT\CORECRT_MATH.H
C:\PROGRAM FILES (X86)\WINDOWS KITS\10\INCLUDE\10.0.18362.0\UCRT\STDLIB.H
C:\PROGRAM FILES (X86)\WINDOWS KITS\10\INCLUDE\10.0.18362.0\UCRT\CORECRT_MALLOC.H
C:\PROGRAM FILES (X86)\WINDOWS KITS\10\INCLUDE\10.0.18362.0\UCRT\CORECRT_SEARCH.H
C:\PROGRAM FILES (X86)\WINDOWS KITS\10\INCLUDE\10.0.18362.0\UCRT\STDDEF.H
C:\PROGRAM FILES (X86)\WINDOWS KITS\10\INCLUDE\10.0.18362.0\UCRT\CORECRT_WSTDLIB.H
C:\PROGRAM FILES (X86)\MICROSOFT VISUAL STUDIO\2019\COMMUNITY\VC\TOOLS\MSVC\14.25.28610\INCLUDE\XTR1COMMON
C:\PROGRAM FILES (X86)\MICROSOFT VISUAL STUDIO\2019\COMMUNITY\VC\TOOLS\MSVC\14.25.28610\INCLUDE\CSTDIO
C:\PROGRAM FILES (X86)\WINDOWS KITS\10\INCLUDE\10.0.18362.0\UCRT\STDIO.H
C:\PROGRAM FILES (X86)\WINDOWS KITS\10\INCLUDE\10.0.18362.0\UCRT\CORECRT_WSTDIO.H
C:\PROGRAM FILES (X86)\WINDOWS KITS\10\INCLUDE\10.0.18362.0\UCRT\CORECRT_STDIO_CONFIG.H
C:\PROGRAM FILES (X86)\MICROSOFT VISUAL STUDIO\2019\COMMUNITY\VC\TOOLS\MSVC\14.25.28610\INCLUDE\STREAMBUF
C:\PROGRAM FILES (X86)\MICROSOFT VISUAL STUDIO\2019\COMMUNITY\VC\TOOLS\MSVC\14.25.28610\INCLUDE\XIOSBASE
C:\PROGRAM FILES (X86)\WINDOWS KITS\10\INCLUDE\10.0.18362.0\UCRT\SHARE.H
C:\PROGRAM FILES (X86)\WINDOWS KITS\10\INCLUDE\10.0.18362.0\UCRT\CORECRT_SHARE.H
C:\PROGRAM FILES (X86)\MICROSOFT VISUAL STUDIO\2019\COMMUNITY\VC\TOOLS\MSVC\14.25.28610\INCLUDE\SYSTEM_ERROR
C:\PROGRAM FILES (X86)\MICROSOFT VISUAL STUDIO\2019\COMMUNITY\VC\TOOLS\MSVC\14.25.28610\INCLUDE\CERRNO
C:\PROGRAM FILES (X86)\WINDOWS KITS\10\INCLUDE\10.0.18362.0\UCRT\ERRNO.H
C:\PROGRAM FILES (X86)\MICROSOFT VISUAL STUDIO\2019\COMMUNITY\VC\TOOLS\MSVC\14.25.28610\INCLUDE\STDEXCEPT
C:\PROGRAM FILES (X86)\MICROSOFT VISUAL STUDIO\2019\COMMUNITY\VC\TOOLS\MSVC\14.25.28610\INCLUDE\EXCEPTION
C:\PROGRAM FILES (X86)\MICROSOFT VISUAL STUDIO\2019\COMMUNITY\VC\TOOLS\MSVC\14.25.28610\INCLUDE\TYPE_TRAITS
C:\PROGRAM FILES (X86)\MICROSOFT VISUAL STUDIO\2019\COMMUNITY\VC\TOOLS\MSVC\14.25.28610\INCLUDE\XSTDDEF
C:\PROGRAM FILES (X86)\MICROSOFT VISUAL STUDIO\2019\COMMUNITY\VC\TOOLS\MSVC\14.25.28610\INCLUDE\CSTDDEF
C:\PROGRAM FILES (X86)\MICROSOFT VISUAL STUDIO\2019\COMMUNITY\VC\TOOLS\MSVC\14.25.28610\INCLUDE\INITIALIZER_LIST
C:\PROGRAM FILES (X86)\WINDOWS KITS\10\INCLUDE\10.0.18362.0\UCRT\MALLOC.H
C:\PROGRAM FILES (X86)\MICROSOFT VISUAL STUDIO\2019\COMMUNITY\VC\TOOLS\MSVC\14.25.28610\INCLUDE\VCRUNTIME_EXCEPTION.H
C:\PROGRAM FILES (X86)\MICROSOFT VISUAL STUDIO\2019\COMMUNITY\VC\TOOLS\MSVC\14.25.28610\INCLUDE\EH.H
C:\PROGRAM FILES (X86)\WINDOWS KITS\10\INCLUDE\10.0.18362.0\UCRT\CORECRT_TERMINATE.H
C:\PROGRAM FILES (X86)\MICROSOFT VISUAL STUDIO\2019\COMMUNITY\VC\TOOLS\MSVC\14.25.28610\INCLUDE\XSTRING
C:\PROGRAM FILES (X86)\MICROSOFT VISUAL STUDIO\2019\COMMUNITY\VC\TOOLS\MSVC\14.25.28610\INCLUDE\IOSFWD
C:\PROGRAM FILES (X86)\MICROSOFT VISUAL STUDIO\2019\COMMUNITY\VC\TOOLS\MSVC\14.25.28610\INCLUDE\CSTRING
C:\PROGRAM FILES (X86)\WINDOWS KITS\10\INCLUDE\10.0.18362.0\UCRT\STRING.H
C:\PROGRAM FILES (X86)\WINDOWS KITS\10\INCLUDE\10.0.18362.0\UCRT\CORECRT_MEMORY.H
C:\PROGRAM FILES (X86)\WINDOWS KITS\10\INCLUDE\10.0.18362.0\UCRT\CORECRT_MEMCPY_S.H
C:\PROGRAM FILES (X86)\MICROSOFT VISUAL STUDIO\2019\COMMUNITY\VC\TOOLS\MSVC\14.25.28610\INCLUDE\VCRUNTIME_STRING.H
C:\PROGRAM FILES (X86)\WINDOWS KITS\10\INCLUDE\10.0.18362.0\UCRT\CORECRT_WSTRING.H
C:\PROGRAM FILES (X86)\MICROSOFT VISUAL STUDIO\2019\COMMUNITY\VC\TOOLS\MSVC\14.25.28610\INCLUDE\CWCHAR
C:\PROGRAM FILES (X86)\WINDOWS KITS\10\INCLUDE\10.0.18362.0\UCRT\WCHAR.H
C:\PROGRAM FILES (X86)\WINDOWS KITS\10\INCLUDE\10.0.18362.0\UCRT\CORECRT_WCONIO.H
C:\PROGRAM FILES (X86)\WINDOWS KITS\10\INCLUDE\10.0.18362.0\UCRT\CORECRT_WCTYPE.H
C:\PROGRAM FILES (X86)\WINDOWS KITS\10\INCLUDE\10.0.18362.0\UCRT\CORECRT_WDIRECT.H
C:\PROGRAM FILES (X86)\WINDOWS KITS\10\INCLUDE\10.0.18362.0\UCRT\CORECRT_WIO.H
C:\PROGRAM FILES (X86)\WINDOWS KITS\10\INCLUDE\10.0.18362.0\UCRT\CORECRT_WPROCESS.H
C:\PROGRAM FILES (X86)\WINDOWS KITS\10\INCLUDE\10.0.18362.0\UCRT\CORECRT_WTIME.H
C:\PROGRAM FILES (X86)\WINDOWS KITS\10\INCLUDE\10.0.18362.0\UCRT\SYS\STAT.H
C:\PROGRAM FILES (X86)\WINDOWS KITS\10\INCLUDE\10.0.18362.0\UCRT\SYS\TYPES.H
C:\PROGRAM FILES (X86)\MICROSOFT VISUAL STUDIO\2019\COMMUNITY\VC\TOOLS\MSVC\14.25.28610\INCLUDE\XMEMORY
C:\PROGRAM FILES (X86)\MICROSOFT VISUAL STUDIO\2019\COMMUNITY\VC\TOOLS\MSVC\14.25.28610\INCLUDE\CSTDINT
C:\PROGRAM FILES (X86)\MICROSOFT VISUAL STUDIO\2019\COMMUNITY\VC\TOOLS\MSVC\14.25.28610\INCLUDE\STDINT.H
C:\PROGRAM FILES (X86)\MICROSOFT VISUAL STUDIO\2019\COMMUNITY\VC\TOOLS\MSVC\14.25.28610\INCLUDE\LIMITS
C:\PROGRAM FILES (X86)\MICROSOFT VISUAL STUDIO\2019\COMMUNITY\VC\TOOLS\MSVC\14.25.28610\INCLUDE\CFLOAT
C:\PROGRAM FILES (X86)\WINDOWS KITS\10\INCLUDE\10.0.18362.0\UCRT\FLOAT.H
C:\PROGRAM FILES (X86)\MICROSOFT VISUAL STUDIO\2019\COMMUNITY\VC\TOOLS\MSVC\14.25.28610\INCLUDE\NEW
C:\PROGRAM FILES (X86)\MICROSOFT VISUAL STUDIO\2019\COMMUNITY\VC\TOOLS\MSVC\14.25.28610\INCLUDE\XATOMIC.H
C:\PROGRAM FILES (X86)\MICROSOFT VISUAL STUDIO\2019\COMMUNITY\VC\TOOLS\MSVC\14.25.28610\INCLUDE\INTRIN0.H
C:\PROGRAM FILES (X86)\MICROSOFT VISUAL STUDIO\2019\COMMUNITY\VC\TOOLS\MSVC\14.25.28610\INCLUDE\XUTILITY
C:\PROGRAM FILES (X86)\MICROSOFT VISUAL STUDIO\2019\COMMUNITY\VC\TOOLS\MSVC\14.25.28610\INCLUDE\UTILITY
C:\PROGRAM FILES (X86)\MICROSOFT VISUAL STUDIO\2019\COMMUNITY\VC\TOOLS\MSVC\14.25.28610\INCLUDE\XCALL_ONCE.H
C:\PROGRAM FILES (X86)\MICROSOFT VISUAL STUDIO\2019\COMMUNITY\VC\TOOLS\MSVC\14.25.28610\INCLUDE\XERRC.H
C:\PROGRAM FILES (X86)\MICROSOFT VISUAL STUDIO\2019\COMMUNITY\VC\TOOLS\MSVC\14.25.28610\INCLUDE\XLOCALE
C:\PROGRAM FILES (X86)\MICROSOFT VISUAL STUDIO\2019\COMMUNITY\VC\TOOLS\MSVC\14.25.28610\INCLUDE\MEMORY
C:\PROGRAM FILES (X86)\MICROSOFT VISUAL STUDIO\2019\COMMUNITY\VC\TOOLS\MSVC\14.25.28610\INCLUDE\TYPEINFO
C:\PROGRAM FILES (X86)\MICROSOFT VISUAL STUDIO\2019\COMMUNITY\VC\TOOLS\MSVC\14.25.28610\INCLUDE\VCRUNTIME_TYPEINFO.H
C:\PROGRAM FILES (X86)\MICROSOFT VISUAL STUDIO\2019\COMMUNITY\VC\TOOLS\MSVC\14.25.28610\INCLUDE\XFACET
C:\PROGRAM FILES (X86)\MICROSOFT VISUAL STUDIO\2019\COMMUNITY\VC\TOOLS\MSVC\14.25.28610\INCLUDE\XLOCINFO
C:\PROGRAM FILES (X86)\MICROSOFT VISUAL STUDIO\2019\COMMUNITY\VC\TOOLS\MSVC\14.25.28610\INCLUDE\XLOCINFO.H
C:\PROGRAM FILES (X86)\WINDOWS KITS\10\INCLUDE\10.0.18362.0\UCRT\CTYPE.H
C:\PROGRAM FILES (X86)\WINDOWS KITS\10\INCLUDE\10.0.18362.0\UCRT\LOCALE.H
C:\OPENGL\GLM\GLM\GLM.HPP
C:\OPENGL\GLM\GLM\DETAIL\_FIXES.HPP
C:\OPENGL\GLM\GLM\DETAIL\SETUP.HPP
C:\PROGRAM FILES (X86)\MICROSOFT VISUAL STUDIO\2019\COMMUNITY\VC\TOOLS\MSVC\14.25.28610\INCLUDE\CASSERT
C:\PROGRAM FILES (X86)\WINDOWS KITS\10\INCLUDE\10.0.18362.0\UCRT\ASSERT.H
C:\OPENGL\GLM\GLM\SIMD\PLATFORM.H
C:\OPENGL\GLM\GLM\FWD.HPP
C:\OPENGL\GLM\GLM\DETAIL\QUALIFIER.HPP
C:\OPENGL\GLM\GLM\VEC2.HPP
C:\OPENGL\GLM\GLM\EXT\VECTOR_BOOL2.HPP
C:\OPENGL\GLM\GLM\DETAIL\TYPE_VEC2.HPP
C:\OPENGL\GLM\GLM\DETAIL\TYPE_VEC2.INL
C:\OPENGL\GLM\GLM\DETAIL\COMPUTE_VECTOR_RELATIONAL.HPP
C:\OPENGL\GLM\GLM\EXT\VECTOR_BOOL2_PRECISION.HPP
C:\OPENGL\GLM\GLM\EXT\VECTOR_FLOAT2.HPP
C:\OPENGL\GLM\GLM\EXT\VECTOR_FLOAT2_PRECISION.HPP
C:\OPENGL\GLM\GLM\EXT\VECTOR_DOUBLE2.HPP
C:\OPENGL\GLM\GLM\EXT\VECTOR_DOUBLE2_PRECISION.HPP
C:\OPENGL\GLM\GLM\EXT\VECTOR_INT2.HPP
C:\OPENGL\GLM\GLM\EXT\VECTOR_INT2_PRECISION.HPP
C:\OPENGL\GLM\GLM\EXT\VECTOR_UINT2.HPP
C:\OPENGL\GLM\GLM\EXT\VECTOR_UINT2_PRECISION.HPP
C:\OPENGL\GLM\GLM\VEC3.HPP
C:\OPENGL\GLM\GLM\EXT\VECTOR_BOOL3.HPP
C:\OPENGL\GLM\GLM\DETAIL\TYPE_VEC3.HPP
C:\OPENGL\GLM\GLM\DETAIL\TYPE_VEC3.INL
C:\OPENGL\GLM\GLM\EXT\VECTOR_BOOL3_PRECISION.HPP
C:\OPENGL\GLM\GLM\EXT\VECTOR_FLOAT3.HPP
C:\OPENGL\GLM\GLM\EXT\VECTOR_FLOAT3_PRECISION.HPP
C:\OPENGL\GLM\GLM\EXT\VECTOR_DOUBLE3.HPP
C:\OPENGL\GLM\GLM\EXT\VECTOR_DOUBLE3_PRECISION.HPP
C:\OPENGL\GLM\GLM\EXT\VECTOR_INT3.HPP
C:\OPENGL\GLM\GLM\EXT\VECTOR_INT3_PRECISION.HPP
C:\OPENGL\GLM\GLM\EXT\VECTOR_UINT3.HPP
C:\OPENGL\GLM\GLM\EXT\VECTOR_UINT3_PRECISION.HPP
C:\OPENGL\GLM\GLM\VEC4.HPP
C:\OPENGL\GLM\GLM\EXT\VECTOR_BOOL4.HPP
C:\OPENGL\GLM\GLM\DETAIL\TYPE_VEC4.HPP
C:\OPENGL\GLM\GLM\DETAIL\TYPE_VEC4.INL
C:\OPENGL\GLM\GLM\EXT\VECTOR_BOOL4_PRECISION.HPP
C:\OPENGL\GLM\GLM\EXT\VECTOR_FLOAT4.HPP
C:\OPENGL\GLM\GLM\EXT\VECTOR_FLOAT4_PRECISION.HPP
C:\OPENGL\GLM\GLM\EXT\VECTOR_DOUBLE4.HPP
C:\OPENGL\GLM\GLM\EXT\VECTOR_DOUBLE4_PRECISION.HPP
C:\OPENGL\GLM\GLM\EXT\VECTOR_INT4.HPP
C:\OPENGL\GLM\GLM\EXT\VECTOR_INT4_PRECISION.HPP
C:\OPENGL\GLM\GLM\EXT\VECTOR_UINT4.HPP
C:\OPENGL\GLM\GLM\EXT\VECTOR_UINT4_PRECISION.HPP
C:\OPENGL\GLM\GLM\MAT2X2.HPP
C:\OPENGL\GLM\GLM\EXT\MATRIX_DOUBLE2X2.HPP
C:\OPENGL\GLM\GLM\DETAIL\TYPE_MAT2X2.HPP
C:\OPENGL\GLM\GLM\DETAIL\TYPE_MAT2X2.INL
C:\OPENGL\GLM\GLM\MATRIX.HPP
C:\OPENGL\GLM\GLM\MAT2X3.HPP
C:\OPENGL\GLM\GLM\EXT\MATRIX_DOUBLE2X3.HPP
C:\OPENGL\GLM\GLM\DETAIL\TYPE_MAT2X3.HPP
C:\OPENGL\GLM\GLM\DETAIL\TYPE_MAT2X3.INL
C:\OPENGL\GLM\GLM\EXT\MATRIX_DOUBLE2X3_PRECISION.HPP
C:\OPENGL\GLM\GLM\EXT\MATRIX_FLOAT2X3.HPP
C:\OPENGL\GLM\GLM\EXT\MATRIX_FLOAT2X3_PRECISION.HPP
C:\OPENGL\GLM\GLM\MAT2X4.HPP
C:\OPENGL\GLM\GLM\EXT\MATRIX_DOUBLE2X4.HPP
C:\OPENGL\GLM\GLM\DETAIL\TYPE_MAT2X4.HPP
C:\OPENGL\GLM\GLM\DETAIL\TYPE_MAT2X4.INL
C:\OPENGL\GLM\GLM\EXT\MATRIX_DOUBLE2X4_PRECISION.HPP
C:\OPENGL\GLM\GLM\EXT\MATRIX_FLOAT2X4.HPP
C:\OPENGL\GLM\GLM\EXT\MATRIX_FLOAT2X4_PRECISION.HPP
C:\OPENGL\GLM\GLM\MAT3X2.HPP
C:\OPENGL\GLM\GLM\EXT\MATRIX_DOUBLE3X2.HPP
C:\OPENGL\GLM\GLM\DETAIL\TYPE_MAT3X2.HPP
C:\OPENGL\GLM\GLM\DETAIL\TYPE_MAT3X2.INL
C:\OPENGL\GLM\GLM\EXT\MATRIX_DOUBLE3X2_PRECISION.HPP
C:\OPENGL\GLM\GLM\EXT\MATRIX_FLOAT3X2.HPP
C:\OPENGL\GLM\GLM\EXT\MATRIX_FLOAT3X2_PRECISION.HPP
C:\OPENGL\GLM\GLM\MAT3X3.HPP
C:\OPENGL\GLM\GLM\EXT\MATRIX_DOUBLE3X3.HPP
C:\OPENGL\GLM\GLM\DETAIL\TYPE_MAT3X3.HPP
C:\OPENGL\GLM\GLM\DETAIL\TYPE_MAT3X3.INL
C:\OPENGL\GLM\GLM\EXT\MATRIX_DOUBLE3X3_PRECISION.HPP
C:\OPENGL\GLM\GLM\EXT\MATRIX_FLOAT3X3.HPP
C:\OPENGL\GLM\GLM\EXT\MATRIX_FLOAT3X3_PRECISION.HPP
C:\OPENGL\GLM\GLM\MAT3X4.HPP
C:\OPENGL\GLM\GLM\EXT\MATRIX_DOUBLE3X4.HPP
C:\OPENGL\GLM\GLM\DETAIL\TYPE_MAT3X4.HPP
C:\OPENGL\GLM\GLM\DETAIL\TYPE_MAT3X4.INL
C:\OPENGL\GLM\GLM\EXT\MATRIX_DOUBLE3X4_PRECISION.HPP
C:\OPENGL\GLM\GLM\EXT\MATRIX_FLOAT3X4.HPP
C:\OPENGL\GLM\GLM\EXT\MATRIX_FLOAT3X4_PRECISION.HPP
C:\OPENGL\GLM\GLM\MAT4X2.HPP
C:\OPENGL\GLM\GLM\EXT\MATRIX_DOUBLE4X2.HPP
C:\OPENGL\GLM\GLM\DETAIL\TYPE_MAT4X2.HPP
C:\OPENGL\GLM\GLM\DETAIL\TYPE_MAT4X2.INL
C:\OPENGL\GLM\GLM\EXT\MATRIX_DOUBLE4X2_PRECISION.HPP
C:\OPENGL\GLM\GLM\EXT\MATRIX_FLOAT4X2.HPP
C:\OPENGL\GLM\GLM\EXT\MATRIX_FLOAT4X2_PRECISION.HPP
C:\OPENGL\GLM\GLM\MAT4X3.HPP
C:\OPENGL\GLM\GLM\EXT\MATRIX_DOUBLE4X3.HPP
C:\OPENGL\GLM\GLM\DETAIL\TYPE_MAT4X3.HPP
C:\OPENGL\GLM\GLM\DETAIL\TYPE_MAT4X3.INL
C:\OPENGL\GLM\GLM\EXT\MATRIX_DOUBLE4X3_PRECISION.HPP
C:\OPENGL\GLM\GLM\EXT\MATRIX_FLOAT4X3.HPP
C:\OPENGL\GLM\GLM\EXT\MATRIX_FLOAT4X3_PRECISION.HPP
C:\OPENGL\GLM\GLM\MAT4X4.HPP
C:\OPENGL\GLM\GLM\EXT\MATRIX_DOUBLE4X4.HPP
C:\OPENGL\GLM\GLM\DETAIL\TYPE_MAT4X4.HPP
C:\OPENGL\GLM\GLM\DETAIL\TYPE_MAT4X4.INL
C:\OPENGL\GLM\GLM\EXT\MATRIX_DOUBLE4X4_PRECISION.HPP
C:\OPENGL\GLM\GLM\EXT\MATRIX_FLOAT4X4.HPP
C:\OPENGL\GLM\GLM\EXT\MATRIX_FLOAT4X4_PRECISION.HPP
C:\OPENGL\GLM\GLM\DETAIL\FUNC_MATRIX.INL
C:\OPENGL\GLM\GLM\GEOMETRIC.HPP
C:\OPENGL\GLM\GLM\DETAIL\FUNC_GEOMETRIC.INL
C:\OPENGL\GLM\GLM\EXPONENTIAL.HPP
C:\OPENGL\GLM\GLM\DETAIL\TYPE_VEC1.HPP
C:\OPENGL\GLM\GLM\DETAIL\TYPE_VEC1.INL
C:\OPENGL\GLM\GLM\DETAIL\FUNC_EXPONENTIAL.INL
C:\OPENGL\GLM\GLM\VECTOR_RELATIONAL.HPP
C:\OPENGL\GLM\GLM\DETAIL\FUNC_VECTOR_RELATIONAL.INL
C:\OPENGL\GLM\GLM\DETAIL\_VECTORIZE.HPP
C:\OPENGL\GLM\GLM\COMMON.HPP
C:\OPENGL\GLM\GLM\DETAIL\FUNC_COMMON.INL
C:\OPENGL\GLM\GLM\DETAIL\COMPUTE_COMMON.HPP
C:\OPENGL\GLM\GLM\EXT\MATRIX_DOUBLE2X2_PRECISION.HPP
C:\OPENGL\GLM\GLM\EXT\MATRIX_FLOAT2X2.HPP
C:\OPENGL\GLM\GLM\EXT\MATRIX_FLOAT2X2_PRECISION.HPP
C:\OPENGL\GLM\GLM\TRIGONOMETRIC.HPP
C:\OPENGL\GLM\GLM\DETAIL\FUNC_TRIGONOMETRIC.INL
C:\OPENGL\GLM\GLM\PACKING.HPP
C:\OPENGL\GLM\GLM\DETAIL\FUNC_PACKING.INL
C:\OPENGL\GLM\GLM\DETAIL\TYPE_HALF.HPP
C:\OPENGL\GLM\GLM\DETAIL\TYPE_HALF.INL
C:\OPENGL\GLM\GLM\INTEGER.HPP
C:\OPENGL\GLM\GLM\DETAIL\FUNC_INTEGER.INL
C:\PROGRAM FILES (X86)\MICROSOFT VISUAL STUDIO\2019\COMMUNITY\VC\TOOLS\MSVC\14.25.28610\INCLUDE\INTRIN.H
C:\PROGRAM FILES (X86)\MICROSOFT VISUAL STUDIO\2019\COMMUNITY\VC\TOOLS\MSVC\14.25.28610\INCLUDE\SETJMP.H
C:\PROGRAM FILES (X86)\MICROSOFT VISUAL STUDIO\2019\COMMUNITY\VC\TOOLS\MSVC\14.25.28610\INCLUDE\IMMINTRIN.H
C:\PROGRAM FILES (X86)\MICROSOFT VISUAL STUDIO\2019\COMMUNITY\VC\TOOLS\MSVC\14.25.28610\INCLUDE\WMMINTRIN.H
C:\PROGRAM FILES (X86)\MICROSOFT VISUAL STUDIO\2019\COMMUNITY\VC\TOOLS\MSVC\14.25.28610\INCLUDE\NMMINTRIN.H
C:\PROGRAM FILES (X86)\MICROSOFT VISUAL STUDIO\2019\COMMUNITY\VC\TOOLS\MSVC\14.25.28610\INCLUDE\SMMINTRIN.H
C:\PROGRAM FILES (X86)\MICROSOFT VISUAL STUDIO\2019\COMMUNITY\VC\TOOLS\MSVC\14.25.28610\INCLUDE\TMMINTRIN.H
C:\PROGRAM FILES (X86)\MICROSOFT VISUAL STUDIO\2019\COMMUNITY\VC\TOOLS\MSVC\14.25.28610\INCLUDE\PMMINTRIN.H
C:\PROGRAM FILES (X86)\MICROSOFT VISUAL STUDIO\2019\COMMUNITY\VC\TOOLS\MSVC\14.25.28610\INCLUDE\EMMINTRIN.H
C:\PROGRAM FILES (X86)\MICROSOFT VISUAL STUDIO\2019\COMMUNITY\VC\TOOLS\MSVC\14.25.28610\INCLUDE\XMMINTRIN.H
C:\PROGRAM FILES (X86)\MICROSOFT VISUAL STUDIO\2019\COMMUNITY\VC\TOOLS\MSVC\14.25.28610\INCLUDE\MMINTRIN.H
C:\PROGRAM FILES (X86)\MICROSOFT VISUAL STUDIO\2019\COMMUNITY\VC\TOOLS\MSVC\14.25.28610\INCLUDE\ZMMINTRIN.H
C:\PROGRAM FILES (X86)\MICROSOFT VISUAL STUDIO\2019\COMMUNITY\VC\TOOLS\MSVC\14.25.28610\INCLUDE\AMMINTRIN.H
C:\PROGRAM FILES (X86)\WINDOWS KITS\10\INCLUDE\10.0.18362.0\UCRT\IO.H
C:\PROGRAM FILES (X86)\WINDOWS KITS\10\INCLUDE\10.0.18362.0\UCRT\CORECRT_IO.H
C:\PROGRAM FILES (X86)\WINDOWS KITS\10\INCLUDE\10.0.18362.0\UCRT\FCNTL.H
