^C:\OPENGL\GRAPHICS-LABS\THREEVARIABLEEQUATION\X64\DEBUG\THREEVARIABLEEQUATION.OBJ
C:\OPENGL\GRAPHICS-LABS\OPENGL_TUTORIAL\X64\DEBUG\THREEVARIABLEEQUATION.ILK
C:\OPENGL\GRAPHICS-LABS\OPENGL_TUTORIAL\X64\DEBUG\THREEVARIABLEEQUATION.EXE
C:\OPENGL\GRAPHICS-LABS\OPENGL_TUTORIAL\X64\DEBUG\THREEVARIABLEEQUATION.PDB
