^C:\OPENGL\GRAPHICS-LABS\VECTORMATRIXMULTIPLICATION\VECTORMATRIXMULTIPLICATION.CPP
C:\OPENGL\GRAPHICS-LABS\VECTORMATRIXMULTIPLICATION\X64\DEBUG\VC142.PDB
C:\OPENGL\GRAPHICS-LABS\VECTORMATRIXMULTIPLICATION\X64\DEBUG\VC142.IDB
C:\OPENGL\GRAPHICS-LABS\VECTORMATRIXMULTIPLICATION\X64\DEBUG\VECTORMATRIXMULTIPLICATION.OBJ
