^C:\OPENGL\GRAPHICS-LABS\TRIANGLE\TRIANGLE.CPP
C:\OPENGL\GRAPHICS-LABS\TRIANGLE\X64\DEBUG\VC142.PDB
C:\OPENGL\GRAPHICS-LABS\TRIANGLE\X64\DEBUG\VC142.IDB
C:\OPENGL\GRAPHICS-LABS\TRIANGLE\X64\DEBUG\TRIANGLE.OBJ
