^C:\OPENGL\GRAPHICS-LABS\MATRIXTRANSPODEDMULTIPLICATION\MATRIXTRANSPOSEDMULTIPLICATION.CPP
C:\OPENGL\GRAPHICS-LABS\MATRIXTRANSPODEDMULTIPLICATION\X64\DEBUG\VC142.PDB
C:\OPENGL\GRAPHICS-LABS\MATRIXTRANSPODEDMULTIPLICATION\X64\DEBUG\VC142.IDB
C:\OPENGL\GRAPHICS-LABS\MATRIXTRANSPODEDMULTIPLICATION\X64\DEBUG\MATRIXTRANSPOSEDMULTIPLICATION.OBJ
