^C:\OPENGL\GRAPHICS-LABS\IRG_LAB3_ASSIGN6\ASSIGNMENT6.CPP|C:\OPENGL\GRAPHICS-LABS\IRG_LAB3_ASSIGN6\BEZIERHOLDER.CPP|C:\OPENGL\GRAPHICS-LABS\IRG_LAB3_ASSIGN6\MODEL.CPP
C:\OPENGL\GRAPHICS-LABS\IRG_LAB3_ASSIGN6\X64\DEBUG\VC142.PDB
C:\OPENGL\GRAPHICS-LABS\IRG_LAB3_ASSIGN6\X64\DEBUG\VC142.IDB
C:\OPENGL\GRAPHICS-LABS\IRG_LAB3_ASSIGN6\X64\DEBUG\MODEL.OBJ
C:\OPENGL\GRAPHICS-LABS\IRG_LAB3_ASSIGN6\X64\DEBUG\ASSIGNMENT6.OBJ
^C:\OPENGL\GRAPHICS-LABS\IRG_LAB3_ASSIGN6\BEZIERHOLDER.CPP|C:\OPENGL\GRAPHICS-LABS\IRG_LAB3_ASSIGN6\MODEL.CPP
C:\OPENGL\GRAPHICS-LABS\IRG_LAB3_ASSIGN6\X64\DEBUG\VC142.PDB
C:\OPENGL\GRAPHICS-LABS\IRG_LAB3_ASSIGN6\X64\DEBUG\VC142.IDB
C:\OPENGL\GRAPHICS-LABS\IRG_LAB3_ASSIGN6\X64\DEBUG\MODEL.OBJ
^C:\OPENGL\GRAPHICS-LABS\IRG_LAB3_ASSIGN6\ASSIGNMENT6.CPP|C:\OPENGL\GRAPHICS-LABS\IRG_LAB3_ASSIGN6\BEZIERHOLDER.CPP
C:\OPENGL\GRAPHICS-LABS\IRG_LAB3_ASSIGN6\X64\DEBUG\VC142.PDB
C:\OPENGL\GRAPHICS-LABS\IRG_LAB3_ASSIGN6\X64\DEBUG\VC142.IDB
C:\OPENGL\GRAPHICS-LABS\IRG_LAB3_ASSIGN6\X64\DEBUG\BEZIERHOLDER.OBJ
C:\OPENGL\GRAPHICS-LABS\IRG_LAB3_ASSIGN6\X64\DEBUG\ASSIGNMENT6.OBJ
^C:\OPENGL\GRAPHICS-LABS\IRG_LAB3_ASSIGN6\BEZIERHOLDER.CPP
C:\OPENGL\GRAPHICS-LABS\IRG_LAB3_ASSIGN6\X64\DEBUG\VC142.PDB
C:\OPENGL\GRAPHICS-LABS\IRG_LAB3_ASSIGN6\X64\DEBUG\VC142.IDB
C:\OPENGL\GRAPHICS-LABS\IRG_LAB3_ASSIGN6\X64\DEBUG\BEZIERHOLDER.OBJ
^C:\OPENGL\GRAPHICS-LABS\IRG_LAB3_ASSIGN6\ASSIGNMENT6.CPP|C:\OPENGL\GRAPHICS-LABS\IRG_LAB3_ASSIGN6\MODEL.CPP
C:\OPENGL\GRAPHICS-LABS\IRG_LAB3_ASSIGN6\X64\DEBUG\VC142.PDB
C:\OPENGL\GRAPHICS-LABS\IRG_LAB3_ASSIGN6\X64\DEBUG\VC142.IDB
C:\OPENGL\GRAPHICS-LABS\IRG_LAB3_ASSIGN6\X64\DEBUG\MODEL.OBJ
C:\OPENGL\GRAPHICS-LABS\IRG_LAB3_ASSIGN6\X64\DEBUG\ASSIGNMENT6.OBJ
^C:\OPENGL\GRAPHICS-LABS\IRG_LAB3_ASSIGN6\MODEL.CPP
C:\OPENGL\GRAPHICS-LABS\IRG_LAB3_ASSIGN6\X64\DEBUG\VC142.PDB
C:\OPENGL\GRAPHICS-LABS\IRG_LAB3_ASSIGN6\X64\DEBUG\VC142.IDB
C:\OPENGL\GRAPHICS-LABS\IRG_LAB3_ASSIGN6\X64\DEBUG\MODEL.OBJ
^C:\OPENGL\GRAPHICS-LABS\IRG_LAB3_ASSIGN6\ASSIGNMENT6.CPP
C:\OPENGL\GRAPHICS-LABS\IRG_LAB3_ASSIGN6\X64\DEBUG\VC142.PDB
C:\OPENGL\GRAPHICS-LABS\IRG_LAB3_ASSIGN6\X64\DEBUG\VC142.IDB
C:\OPENGL\GRAPHICS-LABS\IRG_LAB3_ASSIGN6\X64\DEBUG\ASSIGNMENT6.OBJ
