^C:\OPENGL\GRAPHICS-LABS\IRG_LAB3_ASSIGN6\X64\DEBUG\ASSIGNMENT6.OBJ|C:\OPENGL\GRAPHICS-LABS\IRG_LAB3_ASSIGN6\X64\DEBUG\BEZIERHOLDER.OBJ|C:\OPENGL\GRAPHICS-LABS\IRG_LAB3_ASSIGN6\X64\DEBUG\MODEL.OBJ
C:\OPENGL\GRAPHICS-LABS\OPENGL_TUTORIAL\X64\DEBUG\IRG_LAB3_ASSIGN6.EXE
C:\OPENGL\GRAPHICS-LABS\OPENGL_TUTORIAL\X64\DEBUG\IRG_LAB3_ASSIGN6.ILK
C:\OPENGL\GRAPHICS-LABS\OPENGL_TUTORIAL\X64\DEBUG\IRG_LAB3_ASSIGN6.PDB
